ideologies = {
	
	democratic = {
	
		types = {
			
			conservatism = {
			}
		
			liberalism = {
			}
		
			socialism = {
			}
		}
		
		dynamic_faction_names = {
			"FACTION_NAME_DEMOCRATIC_1"
			"FACTION_NAME_DEMOCRATIC_2"
			"FACTION_NAME_DEMOCRATIC_3"
			"FACTION_NAME_DEMOCRATIC_4"
			"FACTION_NAME_DEMOCRATIC_5"
			"FACTION_NAME_DEMOCRATIC_6"
		}
		
		color = { 0 0 255 }
		
		rules = {
			can_declare_war_on_same_ideology = no
			can_force_government = no
			can_send_volunteers = yes
			can_puppet = no
			can_lower_tension = no
			can_only_justify_war_on_threat_country = yes
			can_guarantee_other_ideologies = no
			can_create_factions = no
		}
		
		can_host_government_in_exile = yes
		
		war_impact_on_world_tension = 0.25		# no major danger, remember this this the 40s!
		faction_impact_on_world_tension = 0.1
		
		modifiers = {
			join_faction_tension = 1
			justify_war_goal_time = 1
		}
		can_be_boosted = no
		faction_modifiers = {
			faction_trade_opinion_factor = 0.50 #plus 50% trade opinion
		}
		ai_democratic = yes # uses the democratic AI behaviour
	}


	communism = {
		
		types = {
		
			marxism = {
			}
			
			leninism = {
			}
			
			stalinism = {
			}
			
			anti_revisionism = {
			}
			
			anarchist_communism = {
			}
		}
		
		dynamic_faction_names = {
			"FACTION_NAME_COMMUNIST_1"
			"FACTION_NAME_COMMUNIST_2"
			"FACTION_NAME_COMMUNIST_3"
			"FACTION_NAME_COMMUNIST_4"
			"FACTION_NAME_COMMUNIST_5"
		}
		
		color = { 255 0 0 }
		
		war_impact_on_world_tension = 0.75		#Commie less threatening
		faction_impact_on_world_tension = 0.5
		
		ai_communist = yes # uses the commie AI behaviour
		
		rules = {
			can_declare_war_on_same_ideology = no
			can_force_government = no
			can_send_volunteers = yes
			can_puppet = no
			can_lower_tension = no
			can_only_justify_war_on_threat_country = yes
			can_guarantee_other_ideologies = no
			can_create_factions = no			
		}
		modifiers = {
			join_faction_tension = 1
			justify_war_goal_time = 1
		}
		can_be_boosted = no
		
		faction_modifiers = {
			
		}

	}

	fascism = {
	
		types = {
		
			nazism = {
			}
			
			fascism_ideology = {
			}
			
			falangism = {
			}
			
			rexism = {
			}
		}
		
		dynamic_faction_names = {
			"FACTION_NAME_FASCIST_1"
			"FACTION_NAME_FASCIST_2"
			"FACTION_NAME_FASCIST_3"
			"FACTION_NAME_FASCIST_4"
			"FACTION_NAME_FASCIST_5"
		}
		
		color = { 150 75 0 }
		
		war_impact_on_world_tension = 1.0			#evil!
		faction_impact_on_world_tension = 1.0
		
		rules = {
			can_declare_war_on_same_ideology = no
			can_force_government = no
			can_send_volunteers = yes
			can_puppet = no
			can_lower_tension = no
			can_only_justify_war_on_threat_country = yes
			can_guarantee_other_ideologies = no
			can_create_factions = no	
		}
		modifiers = {
			join_faction_tension = 1
			justify_war_goal_time = 1
		}
		can_be_boosted = no

		ai_fascist = yes # uses the fascist AI behaviour
	}
	
	neutrality = {
	
		types = {
		
			despotism = {
			}
			
			oligarchism = {
			}
			
			moderatism = {
			}
			
			centrism = {
			}
		}

		dynamic_faction_names = {
			"FACTION_NAME_NONALIGNED_1"
			"FACTION_NAME_NONALIGNED_2"
			"FACTION_NAME_NONALIGNED_3"
			"FACTION_NAME_NONALIGNED_4"
			"FACTION_NAME_NONALIGNED_5"
		}
		
		color = { 124 124 124 }
		
		
		war_impact_on_world_tension = 0.25		#no major danger
		faction_impact_on_world_tension = 0.1
		
		rules = {
			can_declare_war_on_same_ideology = no
			can_force_government = no
			can_send_volunteers = yes
			can_puppet = no
			can_lower_tension = no
			can_only_justify_war_on_threat_country = yes
			can_guarantee_other_ideologies = no
			can_create_factions = no	
		}
		
		modifiers = {
			join_faction_tension = 1
			justify_war_goal_time = 1
		}
		
		faction_modifiers = {
		}

		can_be_boosted = no
		ai_neutral = yes # 
	}
}
