
state={
	id=24
	name="STATE_24"
	manpower = 823150
	
	
	state_category = large_town

	history={
		owner = IAF
		buildings = {
			infrastructure = 7
			industrial_complex = 2

		}
		add_core_of = IAF
		1939.1.1 = {
			buildings = {
				industrial_complex = 4
			}
		}
	}

	provinces={
		6688 11611 11631 
	}
}
