state={
	id=828
	name="STATE_828"
	provinces={
		3959 3961 6975 9909 
	}
	history={
		owner = GPM
		add_core_of = GPM
		add_core_of = SAV
		victory_points = {
			9909 5 
		}
		buildings = {
			infrastructure = 4
			9909 = {
				naval_base = 2

			}

		}

	}
	state_category=town
	manpower=587000
	buildings_max_level_factor=1.000
}
