state={
	id=829
	name="STATE_829"
	provinces={
		6786 9728 9732 11716 
	}
	history={
		owner = KOB
		add_core_of = KOB
		buildings = {
			infrastructure = 5
		}

	}
	state_category=town
	manpower=517000
	buildings_max_level_factor=1.000
}
