#reload countrycolors

GER = {
	color = HSV { 0.1 0.15 0.4 }
	color_ui = rgb { 138 155 116 }
}
ENG = {
	color = rgb { 179 14 18 }
	color_ui = rgb { 179 14 18 }
}
SOV = {
	color = rgb { 125 13 24 }
	color_ui = rgb { 163 17 31 }
}
RUS = {
	color = rgb { 35  137  22 }
	color_ui = rgb { 35  137  22 }
}
RUE = {
	color = rgb { 224  180  35 }
	color_ui = rgb { 224  180  35 }
}
SWE = {
	color = rgb { 36 132 247 }
	color_ui = rgb { 47 172 255 }
}
FRA = {
	color = rgb { 57 113 228 }
	color_ui = rgb { 74 147 255 }
}
LUX = {
	color = rgb { 65 175 179 }
	color_ui = rgb { 85 228 233 }
}
BEL = { color 	 = rgb { 193 171 8  }
		color_ui = rgb { 251 222 10 }
	  }
HOL = {	color = rgb { 203 138 74 }
		color_ui = rgb { 255 179 96 }
}
CZE = {	color = rgb { 54 167 156 }
		color_ui = rgb { 70 217 203 }
}
POL = {
	color = rgb { 197 92 106 }
	color_ui = rgb { 255 120 138 }
}
AUS = {
	color = rgb { 194 198 215 }
	color_ui = rgb { 255 255 255 }
}
LIT = {
	color = rgb { 219 219 119 }
	color_ui = rgb { 255 255 155 }
}
EST = {
	color = rgb { 50 135 175 }
	color_ui = rgb { 99 204 254 }
}
LAT = {
	color = rgb { 75 77 186 }
	color_ui = rgb { 124 125 184 }
}
ITA = {
	color = rgb { 67 127 63 }
	color_ui = rgb { 87 165 82 }
}
ROM = {
	color = rgb { 215 196 72 }
	color_ui = rgb { 255 255 120 }
}
YUG = {
	color = rgb { 72 73 126 }
	color_ui = rgb { 94 95 164 }
}
SWI = {
	color = rgb { 224 5 5 }
	color_ui = rgb { 193 81 81 }
}
TUR = {
	color = rgb { 171 190 152 }
	color_ui = rgb { 222 247 198 }
}
GRE = {
	color = rgb { 93 181 227 }
	color_ui = rgb { 121 235 255 }
}
ALB = {
	color = rgb { 149 45 102 }
	color_ui = rgb { 194 59 133 }
}
NOR = {
	color = rgb { 111 71 71 }
	color_ui = rgb { 144 92 92 }
}
DEN = {
	color = rgb { 153 116 93 }
	color_ui = rgb { 199 151 121 }
}
BUL = {
	color = rgb { 119 153 62 }
	color_ui = rgb { 128 161 109 }#17 34 27
}
FIN = {
	color = rgb { 205 212 228 }
	color_ui = rgb { 255 255 255 }
}
IRE = {
	color = rgb { 80 159 90 }
	color_ui = rgb { 104 207 117 }
}
HUN = {
	color = rgb { 249 126 98 }
	color_ui = rgb { 255 164 127 }
}
AFG = {
	color = rgb { 64 160 167 }
	color_ui = rgb { 83 208 217 }
}
ARG = {
	color = rgb { 145 157 236 }
	color_ui = rgb { 189 204 255 }
}
AST = {
	color = rgb { 57 143 97 }
	color_ui = rgb { 74 186 126 }
}
BHU = {
	color = rgb { 172 122 88 }
	color_ui = rgb { 172 122 88 }
}
BOL = {
	color = hsv { 0.1 0.47 0.8 } #255 180 136
	color_ui = rgb { 255 234 177 }
}
BRA = {
	color = rgb { 76 145 63 }
	color_ui = rgb { 99 189 82 }
}
CAN = {
	color = rgb { 119 48 39 }
	color_ui = rgb { 155 62 51 }
}
NFL = {
	color = rgb { 39 48 119 }
	color_ui = rgb { 51 62 155 }
}
CHI = {
	color = hsv { 0.18 0.6 0.9 } #255 244 190
	color_ui = hsv { 0.18 0.3 0.9 }
}
CHL = {
	color = rgb { 155 101 107 }
	color_ui = rgb { 202 131 139 }
}
COL = {
	color = rgb { 222 187 91 }
	color_ui = rgb { 255 243 118 }
}
COS = {
	color = rgb { 152 128 43 }
	color_ui = rgb { 152 128 43 }
}
ECU = {
	color = rgb { 249 146 98 }
	color_ui = rgb { 255 190 127 }
}
ELS = {
	color = rgb { 89 5 5 }
	color_ui = rgb { 89 5 5 }
}
ETH = {
	color = rgb { 152 130 191 }
	color_ui = rgb { 198 169 248 }
}
GUA = {
	color = rgb { 72 49 112 }
	color_ui = rgb { 72 49 112 }
}
HON = {
	color = rgb { 128 145 65 }
	color_ui = rgb { 128 145 65 }
}
IRQ = {
	color = rgb { 178 114 99 }
	color_ui = rgb { 231 148 129 }
}
JAP = {
	color = hsv { 0.05 0.3 1 }
	color_ui = hsv { 0.05 0.25 1.2 }
}
LIB = {
	color = rgb { 152 130 191 }
	color_ui = rgb { 198 169 248 }
}
MEX = {
	color = rgb { 104 152 83 }
	color_ui = rgb { 135 198 108 }
}
NEP = {
	color = rgb { 152 130 191 }
	color_ui = rgb { 198 169 248 }
}
NIC = {
	color = rgb { 146 179 191 }
	color_ui = rgb { 146 179 191 }
}
NZL = {
	color = rgb { 152 130 191 }
	color_ui = rgb { 198 169 248 }
}
PAN = {
	color = rgb { 152 130 191 }
	color_ui = rgb { 198 169 248 }
}
PER = {
	color = rgb { 71 113 97 }
	color_ui = rgb { 92 147 126 }
}
PHI = {
	color = rgb { 152 130 191 }
	color_ui = rgb { 198 169 248 }
}
PRU = {
	color = rgb { 196 189 204 }
	color_ui = rgb { 255 246 255 }
}
SAF = {
	color = rgb { 112 80 99 }
	color_ui = rgb { 112 80 99 }
}
SAU = {
	color = rgb { 0 108 53 }
	color_ui = rgb { 17 142 80 } #17 34 27
}
SIA = {
	color = rgb { 171 190 152 }
	color_ui = rgb { 222 247 198 }
}
SIK = {
	color = rgb { 71 190 152 }
	color_ui = rgb { 222 247 198 }
}
TIB = {
	color = rgb { 80 115 45}
	color_ui = rgb { 222 247 198 }
}
URG = {
	color = rgb { 171 190 152 }
	color_ui = rgb { 222 247 198 }
}
VEN = {
	color = rgb { 171 190 152 }
	color_ui = rgb { 222 247 198 }
}
YUN = {
	color = rgb { 114 148 80 }
	color_ui = rgb { 222 247 198 }
}
USA = {
	color = rgb { 8 64 129 }
	color_ui = rgb { 8 64 129 }
}
MON = {
	#color = HSV { 0.1 0.15 0.4 }
	color = rgb { 108 140 42 }
	color_ui = rgb { 209 247 133 }
}
MEN = {
	color = rgb { 185  255  152 }
	color_ui = rgb { 165  230  132 }
}
TAN = {
	color = rgb { 152 130 191 }
	color_ui = rgb { 198 169 248 }
}
PAR = {
	color = rgb { 57 113 228 }
	color_ui = rgb { 74 147 255 }
}
CUB = {
	color = rgb { 140 65 166 }
	color_ui = rgb { 140 65 166 }
}
DOM = {
	color = rgb { 152 130 191 }
	color_ui = rgb { 198 169 248 }
}
HAI = {
	color = rgb { 174 113 113 }
	color_ui = rgb { 174 113 113 }
}
YEM = {
	color = rgb { 96 62 66 }
	color_ui = rgb { 113 96 93 } #17 34 27
}
OMA = {
	color = rgb { 155 101 107 }
	color_ui = rgb { 202 131 139 }
}
SLO = {
	color = rgb { 158  161  188 }
	color_ui = rgb { 255 255 255 }
}
RAJ = {
	color = rgb { 204 102 0 }
	color_ui = rgb { 255 128 0 }
}

CRO = {
	color = rgb { 230  70  180 }
	color_ui = rgb { 230 255 122 }
}

PRC = {
	color = rgb { 245 12 55 }
	color_ui = rgb { 178 34 60 }
}

GXC = {
	color = rgb { 71 113 97 }
	color_ui = rgb { 71 113 97 }
}

SHX = {
	color = rgb { 82  2  15 }
	color_ui = rgb { 101  30  41 }
}

XSM = {
	color = rgb { 105 90 132 }
	color_ui = rgb { 105 90 132 }
}

LBA = {
	color = rgb { 200 180 90 }
	color_ui = rgb { 200 180 90 }
}

EGY = {
	color = rgb { 230 230 70 }
	color_ui = rgb { 230 230 70 }
}

PAL = {
	color = rgb { 170  125  80 }
	color_ui = rgb { 170  125  80 }
}

LEB = {
	color = rgb { 130  150  60 }
	color_ui = rgb { 130  150  60 }
}

JOR = {
	color = rgb { 111  55  78 }
	color_ui = rgb { 111  55  78 }
}

SYR = {
	color = rgb { 100  100  150 }
	color_ui = rgb { 100  100  150 }
}

SER = {
	color = rgb { 160 110 110 }
	color_ui = rgb { 160 110 110 }
}

ICE = {
	color = rgb { 100  125  175 }
	color_ui = rgb { 100  125  175 }
}

UKR = {
	color = rgb { 0  80  230 }
	color_ui = rgb { 0  80  230 }	
}

AZR = {
	color = rgb { 69  151  49 }
	color_ui = rgb { 69  151  49 }
}

GEO = {
	color = rgb { 255  150  150 }
	color_ui = rgb { 255  204  204 }
}

ARM = {
	color = rgb { 176  102  180 }
	color_ui = rgb { 176  102  180 }
}

LAO = {
	color = rgb { 176  102  136 }
	color_ui = rgb { 176  102  136 }
}

INS = {
	color = rgb { 128  158  118 }
	color_ui = rgb { 128  158  118 }
}
VIN = {
	color = rgb { 244  95  66 }
	color_ui = rgb { 244  95  66 }
}

CAM = {
	color = rgb { 100  71  150 }
	color_ui = rgb { 100  71  150 }
}

MAL = {
	color = rgb { 213  169  121 }
	color_ui = rgb { 213  169  121 }
}

MNT = {
	color = rgb { 77  90  105 }
	color_ui = rgb { 77  90  105 }
}

BLR = {
	color = rgb { 180 220 190 }
	color_ui = rgb { 180 220 190 }
}
MAN = {
	color = rgb { 255 120 71 }
	color_ui = rgb { 255 120 71 }
}
ANG = {
	color = rgb { 37 140 61 }
	color_ui = rgb { 37 140 61 }
}

COG = {
	color = rgb { 152 159 209 }
	color_ui = rgb { 152 159 209 }
}
MZB = {
	color = rgb { 112 62 90 }
	color_ui = rgb { 112 62 90 }
}
KEN = {
	color = rgb { 145 103 14 }
	color_ui = rgb { 145 103 14 }
}
ZIM = {
	color = rgb { 150 137 94 }
	color_ui = rgb { 150 137 94 }
}
BOT = {
	color = rgb { 11 132 112 }
	color_ui = rgb { 11 132 112 }
}
PAK = {
	color = rgb { 21 38 66 }
	color_ui = rgb { 21 38 66 }
}
WGR = {
    color = rgb { 195 236 230 } # The colors are set to be more are less what we are used to
    color_ui = rgb { 225 255 255 }
}
DDR = {
    color = rgb { 120 150 80 }
    color_ui = rgb { 150 180 120 }
}
KOR = {
	color = rgb { 255  240  195 }
	color_ui = rgb { 255 248 229 }	
}
ISR = {
	color = rgb { 152  130  191 }
	color_ui = rgb { 152  130  191 }
}


#FOTR nations
COR = {
	color = rgb { 76  97  121 }
	color_ui = rgb { 76  97  121 }
}
RUS = {
	color = rgb { 35  137  22}
	color_ui = rgb { 35  137  22}
}
RUE = {
	color = rgb {  224  180  35 }
	color_ui = rgb { 224  180  35 }
}
ALA = {
	color = rgb { 214 96 77 }
	color_ui = rgb { 214 96 77 }
}
FLR = {
	color = rgb { 223 194 125 }
	color_ui = rgb { 223 194 125 }
}
LUS = {
	color = rgb { 168 221 181 }
	color_ui = rgb { 168 221 181 }
}
MSS = {
	color = rgb { 254 217 118 }
	color_ui = rgb { 254 217 118 }
}
ROR = {
	color = rgb { 225  244  53 }
	color_ui = rgb { 225  244  53 }
}
NRM = {
	color = rgb { 111  71  71 }
	color_ui = rgb { 111  71  71 }
}
LOM = {
	color = rgb { 122 168 119}
	color_ui = rgb { 122 168 119}
}
VOL = {
	color = rgb { 30 197 116 }
	color_ui = rgb { 30 197 116 }
}
CSA = {
	color = rgb { 67 123 237 }
	color_ui = rgb { 67 123 237 }
}

USB = {
	color = rgb { 255 237 160 }
	color_ui = rgb { 255 237 160 }
}
PAP = {
	color = rgb { 203 195 105 }
	color_ui = rgb { 203 195 105 }
}
GLR = {
	color = rgb { 253 141 60 }
	color_ui = rgb { 253 141 60 }
}
TRB = {
	color = rgb { 252 205 229 }
	color_ui = rgb { 252 205 229 }
}
UMS = {
	color = rgb { 65 171 93 }
	color_ui = rgb { 65 171 93 }
}
HAW = {
	color = rgb { 205 18 27 }
	color_ui = rgb { 205 18 27 }
}
POR = {
	color = rgb { 0 147 175 }
	color_ui = rgb { 0 147 175 }
}
PIN = {
	color = rgb { 72 158 175 }
	color_ui = rgb { 72 158 175 }
}
SPR = {
	color = rgb { 252 2 109 }
	color_ui = rgb { 252 2 109 }
}
SPB = {
	color = rgb { 251 2 2 }
	color_ui = rgb { 251 2 2 }
}
SPM = {
	color = rgb { 251 251 251 }
	color_ui = rgb { 251 251 251 }
}
CAT = {
	color = rgb { 253 214 0 }
	color_ui = rgb { 253 214 0 }
}
GEA = {
	color = HSV { 0.1 0.15 0.4 }
	color_ui = rgb { 138 155 116 }
}
BEA = { 
	color = rgb { 193 171 8  }
	color_ui = rgb { 251 222 10 }
}
SEA = {
	color = rgb { 82 121 175 }
	color_ui = rgb { 82 121 175 }
}
ZUL = {
	color = rgb { 110 175 82 }
	color_ui = rgb { 110 175 82 }
}
NAT = {
	color = rgb { 155 102 102 }
	color_ui = rgb { 155 102 102 }
}
NMB = {
	color = rgb { 188 118 122 }
	color_ui = rgb { 188 118 122 }
}
DZG = {
	color = rgb { 140 29 42 }
	color_ui = rgb { 140 29 42 }
}
BCA = {
	color = rgb { 179 14 18 }
	color_ui = rgb { 179 14 18 }
}
FCA = {
	color = rgb { 61 158 137 }
	color_ui = rgb { 78 192 164 }
}
PTG = {
	color = rgb { 12 82 140 }
	color_ui = rgb { 29 116 167 }
}
FRS = {
	color = rgb { 122 159 219 }
	color_ui = rgb { 139 193 246 } #17 34 27
}

FCP = {
	color = rgb { 181 5 5 }
	color_ui = rgb { 181 5 5 }
}

OPA = {
	color = rgb { 186 55 55 }
	color_ui = rgb { 186 55 55 }
}

MAR = {
	color = rgb { 219 0 73 }
	color_ui = rgb { 219 0 73 }
}

FGC = {
	color = rgb { 163 75 8 }
	color_ui = rgb { 163 75 8 }
}

SAV = {
	color = rgb { 64 117 97 }
	color_ui = rgb { 64 117 97 }
}

ORL = {
	color = rgb { 4 0 66 }
	color_ui = rgb { 4 0 66 }
}

SOM = {
	color = rgb { 97 137 95 }
	color_ui = rgb { 114 171 122} #17 34 27
}

GPM = {
	color = rgb { 130 59 108 }
	color_ui = rgb { 130 59 108 }
}

CDF = {
	color = rgb { 93 147 175 }
	color_ui = rgb { 93 147 175 }
}

BAX = {
	color = rgb {91 91 61}
	color_ui = rgb { 91 91 61 }
}

KOB = {
	color = rgb { 141 159 188 }
	color_ui = rgb { 141 159 188 }
}

BUA = {
	color = rgb { 193 94 94 }
	color_ui = rgb { 193 94 94 }
}

DOB = {
	color = rgb { 49 72 96 }
	color_ui = rgb { 49 72 96 }
}

IAF = {
	color = rgb { 160 82 45 }
	color_ui = rgb { 160 82 45 }
}

GAS = {
	color = rgb { 114 1 1 }
	color_ui = rgb { 114 1 1 }
}

NAV = {
	color = rgb { 168 150 35 }
	color_ui = rgb { 168 150 35 }
}

ROS = {
	color = rgb { 1 19 58 }
	color_ui = rgb { 1 19 58 }
}

### CIVIL WAR ###

D01 = {
	color = rgb { 200 100 31 }
	color_ui = rgb { 245 123 38 }
}
D02 = {
	color = rgb { 80 150 179 }
	color_ui = rgb { 89 219 220 }
}
D03 = {
	color = rgb { 92 92 197 }
	color_ui = rgb { 116 116 247 }
}
D04 = {
	color = rgb { 154 69 116 }
	color_ui = rgb { 200 90 151 }
}
D05 = {
	color = rgb { 194 140 86 }
	color_ui = rgb { 252 182 112 }
}
D06 = {
	color = rgb { 195 149 155 }
	color_ui = rgb { 254 194 202 }
}
D07 = {
	color = rgb { 210 106 47 }
	color_ui = rgb { 255 138 61 }
}
D08 = {
	color = rgb { 105 147 86 }
	color_ui = rgb { 149 210 123 }
}
D09 = {
	color = rgb { 175 162 108 }
	color_ui = rgb { 221 203 135 }
}
D10 = {
	color = rgb { 124 140 162 }
	color_ui = rgb { 161 182 211 }
}
D11 = {
	color = rgb { 187 79 86 }
	color_ui = rgb { 243 103 112 }
}
D12 = {
	color = rgb { 69 157 208 }
	color_ui = rgb { 90 204 255 }
}
D13 = {
	color = rgb { 142 79 200 }
	color_ui = rgb { 176 98 249 }
}
D14 = {
	color = rgb { 122 179 97 }
	color_ui = rgb { 159 233 126 }
}
D15 = {
	color = rgb { 194 140 86 }
	color_ui = rgb { 252 182 112 }
}
